[
   {
      "file_list" : [
         {
            "size" : 1040128,
            "url" : "movie/char/low/movie_2602_1.usm"
         }
      ],
      "md5" : "20b3c38e039c0eccee4d386e6fa095f6",
      "path" : "movie/char/movie_2602_1.usm"
   },
   {
      "file_list" : [
         {
            "size" : 1048576,
            "url" : "movie/char/low/movie_2602.usm.aaa"
         },
         {
            "size" : 1048576,
            "url" : "movie/char/low/movie_2602.usm.aab"
         },
         {
            "size" : 1048576,
            "url" : "movie/char/low/movie_2602.usm.aac"
         },
         {
            "size" : 1048576,
            "url" : "movie/char/low/movie_2602.usm.aad"
         },
         {
            "size" : 1048576,
            "url" : "movie/char/low/movie_2602.usm.aae"
         },
         {
            "size" : 1048576,
            "url" : "movie/char/low/movie_2602.usm.aaf"
         },
         {
            "size" : 1048576,
            "url" : "movie/char/low/movie_2602.usm.aag"
         },
         {
            "size" : 1048576,
            "url" : "movie/char/low/movie_2602.usm.aah"
         },
         {
            "size" : 1048576,
            "url" : "movie/char/low/movie_2602.usm.aai"
         },
         {
            "size" : 1048576,
            "url" : "movie/char/low/movie_2602.usm.aaj"
         },
         {
            "size" : 1048576,
            "url" : "movie/char/low/movie_2602.usm.aak"
         },
         {
            "size" : 348096,
            "url" : "movie/char/low/movie_2602.usm.aal"
         }
      ],
      "md5" : "168e2f9058a45fd6ea2f203663caf888",
      "path" : "movie/char/movie_2602.usm"
   }
]
