[
   {
      "file_list" : [
         {
            "size" : 179616,
            "url" : "movie/char/high/movie_4023_1.usm"
         }
      ],
      "md5" : "a8d8ad1c2d5eeb8e5b83a6707bb6f307",
      "path" : "movie/char/movie_4023_1.usm"
   },
   {
      "file_list" : [
         {
            "size" : 1048576,
            "url" : "movie/char/high/movie_4023.usm.aaa"
         },
         {
            "size" : 1048576,
            "url" : "movie/char/high/movie_4023.usm.aab"
         },
         {
            "size" : 1048576,
            "url" : "movie/char/high/movie_4023.usm.aac"
         },
         {
            "size" : 786144,
            "url" : "movie/char/high/movie_4023.usm.aad"
         }
      ],
      "md5" : "1311e0b146f4594944b41bf2f50b791f",
      "path" : "movie/char/movie_4023.usm"
   }
]
