[
   {
      "file_list" : [
         {
            "size" : 1048576,
            "url" : "movie/char/low/movie_1104.usm.aaa"
         },
         {
            "size" : 1048576,
            "url" : "movie/char/low/movie_1104.usm.aab"
         },
         {
            "size" : 1048576,
            "url" : "movie/char/low/movie_1104.usm.aac"
         },
         {
            "size" : 1048576,
            "url" : "movie/char/low/movie_1104.usm.aad"
         },
         {
            "size" : 1048576,
            "url" : "movie/char/low/movie_1104.usm.aae"
         },
         {
            "size" : 824512,
            "url" : "movie/char/low/movie_1104.usm.aaf"
         }
      ],
      "md5" : "6563386cda28ad74aabb56ddcf8e231d",
      "path" : "movie/char/movie_1104.usm"
   },
   {
      "file_list" : [
         {
            "size" : 1048576,
            "url" : "movie/char/low/movie_1104_1.usm.aaa"
         },
         {
            "size" : 72256,
            "url" : "movie/char/low/movie_1104_1.usm.aab"
         }
      ],
      "md5" : "6d63385cce8530a6f22cc609ddc5c647",
      "path" : "movie/char/movie_1104_1.usm"
   }
]
