[
   {
      "file_list" : [
         {
            "size" : 1044832,
            "url" : "movie/char/low/movie_4026_1.usm"
         }
      ],
      "md5" : "be1ce2d2533bb63c6e56ab71df962792",
      "path" : "movie/char/movie_4026_1.usm"
   },
   {
      "file_list" : [
         {
            "size" : 1048576,
            "url" : "movie/char/low/movie_4026.usm.aaa"
         },
         {
            "size" : 1048576,
            "url" : "movie/char/low/movie_4026.usm.aab"
         },
         {
            "size" : 1048576,
            "url" : "movie/char/low/movie_4026.usm.aac"
         },
         {
            "size" : 1048576,
            "url" : "movie/char/low/movie_4026.usm.aad"
         },
         {
            "size" : 808832,
            "url" : "movie/char/low/movie_4026.usm.aae"
         }
      ],
      "md5" : "c914e114239439327d5f884cc955dbde",
      "path" : "movie/char/movie_4026.usm"
   }
]
