[
   {
      "file_list" : [
         {
            "size" : 1048576,
            "url" : "movie/char/low/movie_2001_1.usm.aaa"
         },
         {
            "size" : 751520,
            "url" : "movie/char/low/movie_2001_1.usm.aab"
         }
      ],
      "md5" : "6676eaca7996a6a7ccc85b063e15ef02",
      "path" : "movie/char/movie_2001_1.usm"
   },
   {
      "file_list" : [
         {
            "size" : 1048576,
            "url" : "movie/char/low/movie_2001.usm.aaa"
         },
         {
            "size" : 1048576,
            "url" : "movie/char/low/movie_2001.usm.aab"
         },
         {
            "size" : 1048576,
            "url" : "movie/char/low/movie_2001.usm.aac"
         },
         {
            "size" : 1048576,
            "url" : "movie/char/low/movie_2001.usm.aad"
         },
         {
            "size" : 1048576,
            "url" : "movie/char/low/movie_2001.usm.aae"
         },
         {
            "size" : 1048576,
            "url" : "movie/char/low/movie_2001.usm.aaf"
         },
         {
            "size" : 1048576,
            "url" : "movie/char/low/movie_2001.usm.aag"
         },
         {
            "size" : 211616,
            "url" : "movie/char/low/movie_2001.usm.aah"
         }
      ],
      "md5" : "69f4b6264af1939957b36a381ccb4d4b",
      "path" : "movie/char/movie_2001.usm"
   }
]
