[
   {
      "file_list" : [
         {
            "size" : 1048576,
            "url" : "movie/char/high/movie_1104.usm.aaa"
         },
         {
            "size" : 1048576,
            "url" : "movie/char/high/movie_1104.usm.aab"
         },
         {
            "size" : 1048576,
            "url" : "movie/char/high/movie_1104.usm.aac"
         },
         {
            "size" : 1048576,
            "url" : "movie/char/high/movie_1104.usm.aad"
         },
         {
            "size" : 1048576,
            "url" : "movie/char/high/movie_1104.usm.aae"
         },
         {
            "size" : 1048576,
            "url" : "movie/char/high/movie_1104.usm.aaf"
         },
         {
            "size" : 1048576,
            "url" : "movie/char/high/movie_1104.usm.aag"
         },
         {
            "size" : 867680,
            "url" : "movie/char/high/movie_1104.usm.aah"
         }
      ],
      "md5" : "e32467d0349a14a0d1b98977672be2e0",
      "path" : "movie/char/movie_1104.usm"
   },
   {
      "file_list" : [
         {
            "size" : 1048576,
            "url" : "movie/char/high/movie_1104_1.usm.aaa"
         },
         {
            "size" : 247904,
            "url" : "movie/char/high/movie_1104_1.usm.aab"
         }
      ],
      "md5" : "172d7c810ff122f4915a08a89bc4bcd4",
      "path" : "movie/char/movie_1104_1.usm"
   }
]
