[
   {
      "file_list" : [
         {
            "size" : 1048576,
            "url" : "movie/char/low/movie_1014.usm.aaa"
         },
         {
            "size" : 1048576,
            "url" : "movie/char/low/movie_1014.usm.aab"
         },
         {
            "size" : 1048576,
            "url" : "movie/char/low/movie_1014.usm.aac"
         },
         {
            "size" : 1048576,
            "url" : "movie/char/low/movie_1014.usm.aad"
         },
         {
            "size" : 158400,
            "url" : "movie/char/low/movie_1014.usm.aae"
         }
      ],
      "md5" : "c93bf5e2b052e4b0d0fd19435db0ac60",
      "path" : "movie/char/movie_1014.usm"
   },
   {
      "file_list" : [
         {
            "size" : 1042272,
            "url" : "movie/char/low/movie_1014_1.usm"
         }
      ],
      "md5" : "7e984e2874021735b35a10c11bb5b398",
      "path" : "movie/char/movie_1014_1.usm"
   }
]
