[
   {
      "file_list" : [
         {
            "size" : 1048576,
            "url" : "movie/char/low/movie_1020_1.usm.aaa"
         },
         {
            "size" : 76992,
            "url" : "movie/char/low/movie_1020_1.usm.aab"
         }
      ],
      "md5" : "2388fbe3643a20335f646446649bbdd4",
      "path" : "movie/char/movie_1020_1.usm"
   },
   {
      "file_list" : [
         {
            "size" : 1048576,
            "url" : "movie/char/low/movie_1020.usm.aaa"
         },
         {
            "size" : 1048576,
            "url" : "movie/char/low/movie_1020.usm.aab"
         },
         {
            "size" : 1048576,
            "url" : "movie/char/low/movie_1020.usm.aac"
         },
         {
            "size" : 767392,
            "url" : "movie/char/low/movie_1020.usm.aad"
         }
      ],
      "md5" : "55a39f3a0fb55f6b3e5b83b56610a58d",
      "path" : "movie/char/movie_1020.usm"
   }
]
