[
   {
      "file_list" : [
         {
            "size" : 1048576,
            "url" : "movie/char/low/movie_1309.usm.aaa"
         },
         {
            "size" : 1048576,
            "url" : "movie/char/low/movie_1309.usm.aab"
         },
         {
            "size" : 1048576,
            "url" : "movie/char/low/movie_1309.usm.aac"
         },
         {
            "size" : 1048576,
            "url" : "movie/char/low/movie_1309.usm.aad"
         },
         {
            "size" : 1048576,
            "url" : "movie/char/low/movie_1309.usm.aae"
         },
         {
            "size" : 1048576,
            "url" : "movie/char/low/movie_1309.usm.aaf"
         },
         {
            "size" : 1048576,
            "url" : "movie/char/low/movie_1309.usm.aag"
         },
         {
            "size" : 1048576,
            "url" : "movie/char/low/movie_1309.usm.aah"
         },
         {
            "size" : 405184,
            "url" : "movie/char/low/movie_1309.usm.aai"
         }
      ],
      "md5" : "6c34ecf25b8ea1a067092c3ca1e97374",
      "path" : "movie/char/movie_1309.usm"
   },
   {
      "file_list" : [
         {
            "size" : 814528,
            "url" : "movie/char/low/movie_1309_1.usm"
         }
      ],
      "md5" : "014fbadcc1c8cfa93e39640010d585e4",
      "path" : "movie/char/movie_1309_1.usm"
   }
]
