[
   {
      "file_list" : [
         {
            "size" : 865184,
            "url" : "movie/char/high/movie_1009_1.usm"
         }
      ],
      "md5" : "eb5838e1331dad8015489bfea4858c32",
      "path" : "movie/char/movie_1009_1.usm"
   },
   {
      "file_list" : [
         {
            "size" : 1048576,
            "url" : "movie/char/high/movie_1009.usm.aaa"
         },
         {
            "size" : 1048576,
            "url" : "movie/char/high/movie_1009.usm.aab"
         },
         {
            "size" : 1048576,
            "url" : "movie/char/high/movie_1009.usm.aac"
         },
         {
            "size" : 1048576,
            "url" : "movie/char/high/movie_1009.usm.aad"
         },
         {
            "size" : 1044928,
            "url" : "movie/char/high/movie_1009.usm.aae"
         }
      ],
      "md5" : "9b55ea63386f3f239aa497f0611b3c32",
      "path" : "movie/char/movie_1009.usm"
   }
]
