[
   {
      "file_list" : [
         {
            "size" : 563584,
            "url" : "movie/char/low/movie_3016_1.usm"
         }
      ],
      "md5" : "10c687de90d29dc075b2ee3ccb32f623",
      "path" : "movie/char/movie_3016_1.usm"
   },
   {
      "file_list" : [
         {
            "size" : 1048576,
            "url" : "movie/char/low/movie_3016.usm.aaa"
         },
         {
            "size" : 988320,
            "url" : "movie/char/low/movie_3016.usm.aab"
         }
      ],
      "md5" : "33991367421fff473df8eed8261bf991",
      "path" : "movie/char/movie_3016.usm"
   }
]
