[
  {
    "file_list": [
      {
        "size": 1048576,
        "url": "movie/char/low/movie_2402_1.usm.aaa"
      },
      {
        "size": 793760,
        "url": "movie/char/low/movie_2402_1.usm.aab"
      }
    ],
    "md5": "09f7101769cc02b79a4f1ce73f2325f6",
    "path": "movie/char/movie_2402_1.usm"
  },
  {
    "file_list": [
      {
        "size": 1048576,
        "url": "movie/char/low/movie_2402.usm.aaa"
      },
      {
        "size": 1048576,
        "url": "movie/char/low/movie_2402.usm.aab"
      },
      {
        "size": 1048576,
        "url": "movie/char/low/movie_2402.usm.aac"
      },
      {
        "size": 1048576,
        "url": "movie/char/low/movie_2402.usm.aad"
      },
      {
        "size": 1048576,
        "url": "movie/char/low/movie_2402.usm.aae"
      },
      {
        "size": 1048576,
        "url": "movie/char/low/movie_2402.usm.aaf"
      },
      {
        "size": 1048576,
        "url": "movie/char/low/movie_2402.usm.aag"
      },
      {
        "size": 1048576,
        "url": "movie/char/low/movie_2402.usm.aah"
      },
      {
        "size": 1048576,
        "url": "movie/char/low/movie_2402.usm.aai"
      },
      {
        "size": 1048576,
        "url": "movie/char/low/movie_2402.usm.aaj"
      },
      {
        "size": 1048576,
        "url": "movie/char/low/movie_2402.usm.aak"
      },
      {
        "size": 1048576,
        "url": "movie/char/low/movie_2402.usm.aal"
      },
      {
        "size": 1048576,
        "url": "movie/char/low/movie_2402.usm.aam"
      },
      {
        "size": 1048576,
        "url": "movie/char/low/movie_2402.usm.aan"
      },
      {
        "size": 1048576,
        "url": "movie/char/low/movie_2402.usm.aao"
      },
      {
        "size": 1048576,
        "url": "movie/char/low/movie_2402.usm.aap"
      },
      {
        "size": 1048576,
        "url": "movie/char/low/movie_2402.usm.aaq"
      },
      {
        "size": 1048576,
        "url": "movie/char/low/movie_2402.usm.aar"
      },
      {
        "size": 1048576,
        "url": "movie/char/low/movie_2402.usm.aas"
      },
      {
        "size": 395232,
        "url": "movie/char/low/movie_2402.usm.aat"
      }
    ],
    "md5": "4d4c2649507482d69b6fd65137b0712e",
    "path": "movie/char/movie_2402.usm"
  }
]
