[
   {
      "file_list" : [
         {
            "size" : 1048576,
            "url" : "movie/char/low/movie_2005_2.usm.aaa"
         },
         {
            "size" : 1048576,
            "url" : "movie/char/low/movie_2005_2.usm.aab"
         },
         {
            "size" : 219904,
            "url" : "movie/char/low/movie_2005_2.usm.aac"
         }
      ],
      "md5" : "9e63355e26b9675f6406b0f338b99cdf",
      "path" : "movie/char/movie_2005_2.usm"
   },
   {
      "file_list" : [
         {
            "size" : 1048576,
            "url" : "movie/char/low/movie_2005_3.usm.aaa"
         },
         {
            "size" : 1048576,
            "url" : "movie/char/low/movie_2005_3.usm.aab"
         },
         {
            "size" : 1048576,
            "url" : "movie/char/low/movie_2005_3.usm.aac"
         },
         {
            "size" : 1048576,
            "url" : "movie/char/low/movie_2005_3.usm.aad"
         },
         {
            "size" : 456736,
            "url" : "movie/char/low/movie_2005_3.usm.aae"
         }
      ],
      "md5" : "7acfb9312cd30e5a6ced85a8d97e7d63",
      "path" : "movie/char/movie_2005_3.usm"
   },
   {
      "file_list" : [
         {
            "size" : 672864,
            "url" : "movie/char/low/movie_2005_1.usm"
         }
      ],
      "md5" : "b67eb0ab4750b867db5e68037f907cf0",
      "path" : "movie/char/movie_2005_1.usm"
   },
   {
      "file_list" : [
         {
            "size" : 1048576,
            "url" : "movie/char/low/movie_2005.usm.aaa"
         },
         {
            "size" : 1048576,
            "url" : "movie/char/low/movie_2005.usm.aab"
         },
         {
            "size" : 1048576,
            "url" : "movie/char/low/movie_2005.usm.aac"
         },
         {
            "size" : 1048576,
            "url" : "movie/char/low/movie_2005.usm.aad"
         },
         {
            "size" : 1006304,
            "url" : "movie/char/low/movie_2005.usm.aae"
         }
      ],
      "md5" : "fc8f5d4cff85bf1c3f6df90ea11ca07d",
      "path" : "movie/char/movie_2005.usm"
   }
]
