[
   {
      "file_list" : [
         {
            "size" : 1048576,
            "url" : "movie/char/high/movie_1026_1.usm.aaa"
         },
         {
            "size" : 15040,
            "url" : "movie/char/high/movie_1026_1.usm.aab"
         }
      ],
      "md5" : "2dd5b86542c45448dcf34e7fe90d8f07",
      "path" : "movie/char/movie_1026_1.usm"
   },
   {
      "file_list" : [
         {
            "size" : 1048576,
            "url" : "movie/char/high/movie_1026.usm.aaa"
         },
         {
            "size" : 1048576,
            "url" : "movie/char/high/movie_1026.usm.aab"
         },
         {
            "size" : 1048576,
            "url" : "movie/char/high/movie_1026.usm.aac"
         },
         {
            "size" : 1048576,
            "url" : "movie/char/high/movie_1026.usm.aad"
         },
         {
            "size" : 1048576,
            "url" : "movie/char/high/movie_1026.usm.aae"
         },
         {
            "size" : 1048576,
            "url" : "movie/char/high/movie_1026.usm.aaf"
         },
         {
            "size" : 822656,
            "url" : "movie/char/high/movie_1026.usm.aag"
         }
      ],
      "md5" : "0336f145ff1c0d9020e30821448bf44a",
      "path" : "movie/char/movie_1026.usm"
   }
]
