[
   {
      "file_list" : [
         {
            "size" : 1048576,
            "url" : "movie/char/high/movie_2201.usm.aaa"
         },
         {
            "size" : 1048576,
            "url" : "movie/char/high/movie_2201.usm.aab"
         },
         {
            "size" : 1048576,
            "url" : "movie/char/high/movie_2201.usm.aac"
         },
         {
            "size" : 1048576,
            "url" : "movie/char/high/movie_2201.usm.aad"
         },
         {
            "size" : 1048576,
            "url" : "movie/char/high/movie_2201.usm.aae"
         },
         {
            "size" : 1048576,
            "url" : "movie/char/high/movie_2201.usm.aaf"
         },
         {
            "size" : 1048576,
            "url" : "movie/char/high/movie_2201.usm.aag"
         },
         {
            "size" : 1048576,
            "url" : "movie/char/high/movie_2201.usm.aah"
         },
         {
            "size" : 1048576,
            "url" : "movie/char/high/movie_2201.usm.aai"
         },
         {
            "size" : 1048576,
            "url" : "movie/char/high/movie_2201.usm.aaj"
         },
         {
            "size" : 1048576,
            "url" : "movie/char/high/movie_2201.usm.aak"
         },
         {
            "size" : 1048576,
            "url" : "movie/char/high/movie_2201.usm.aal"
         },
         {
            "size" : 1048576,
            "url" : "movie/char/high/movie_2201.usm.aam"
         },
         {
            "size" : 1048576,
            "url" : "movie/char/high/movie_2201.usm.aan"
         },
         {
            "size" : 1048576,
            "url" : "movie/char/high/movie_2201.usm.aao"
         },
         {
            "size" : 1048576,
            "url" : "movie/char/high/movie_2201.usm.aap"
         },
         {
            "size" : 1048576,
            "url" : "movie/char/high/movie_2201.usm.aaq"
         },
         {
            "size" : 1048576,
            "url" : "movie/char/high/movie_2201.usm.aar"
         },
         {
            "size" : 1048576,
            "url" : "movie/char/high/movie_2201.usm.aas"
         },
         {
            "size" : 1048576,
            "url" : "movie/char/high/movie_2201.usm.aat"
         },
         {
            "size" : 1048576,
            "url" : "movie/char/high/movie_2201.usm.aau"
         },
         {
            "size" : 1048576,
            "url" : "movie/char/high/movie_2201.usm.aav"
         },
         {
            "size" : 1048576,
            "url" : "movie/char/high/movie_2201.usm.aaw"
         },
         {
            "size" : 1048576,
            "url" : "movie/char/high/movie_2201.usm.aax"
         },
         {
            "size" : 1048576,
            "url" : "movie/char/high/movie_2201.usm.aay"
         },
         {
            "size" : 1048576,
            "url" : "movie/char/high/movie_2201.usm.aaz"
         },
         {
            "size" : 1048576,
            "url" : "movie/char/high/movie_2201.usm.aba"
         },
         {
            "size" : 677728,
            "url" : "movie/char/high/movie_2201.usm.abb"
         }
      ],
      "md5" : "9f00f205861b1c72ab7e62c4071ff2c8",
      "path" : "movie/char/movie_2201.usm"
   },
   {
      "file_list" : [
         {
            "size" : 962432,
            "url" : "movie/char/high/movie_2201_1.usm"
         }
      ],
      "md5" : "079466d1561197b96c1fa4eedfad922f",
      "path" : "movie/char/movie_2201_1.usm"
   }
]
