[
  {
    "file_list": [
      {
        "size": 1048576,
        "url": "movie/char/low/movie_1121_1.usm.aaa"
      },
      {
        "size": 64288,
        "url": "movie/char/low/movie_1121_1.usm.aab"
      }
    ],
    "md5": "c905e6b1291db733acd22325f1e0c637",
    "path": "movie/char/movie_1121_1.usm"
  },
  {
    "file_list": [
      {
        "size": 1048576,
        "url": "movie/char/low/movie_1121.usm.aaa"
      },
      {
        "size": 1048576,
        "url": "movie/char/low/movie_1121.usm.aab"
      },
      {
        "size": 1048576,
        "url": "movie/char/low/movie_1121.usm.aac"
      },
      {
        "size": 322144,
        "url": "movie/char/low/movie_1121.usm.aad"
      }
    ],
    "md5": "32fdb4727f7ed71a83461c10392ca61d",
    "path": "movie/char/movie_1121.usm"
  }
]
