[
   {
      "file_list" : [
         {
            "size" : 942752,
            "url" : "movie/char/high/movie_1501_1.usm"
         }
      ],
      "md5" : "3f148dedc462977a068185f3c703aa1b",
      "path" : "movie/char/movie_1501_1.usm"
   },
   {
      "file_list" : [
         {
            "size" : 1048576,
            "url" : "movie/char/high/movie_1501.usm.aaa"
         },
         {
            "size" : 1048576,
            "url" : "movie/char/high/movie_1501.usm.aab"
         },
         {
            "size" : 1048576,
            "url" : "movie/char/high/movie_1501.usm.aac"
         },
         {
            "size" : 1048576,
            "url" : "movie/char/high/movie_1501.usm.aad"
         },
         {
            "size" : 1048576,
            "url" : "movie/char/high/movie_1501.usm.aae"
         },
         {
            "size" : 1048576,
            "url" : "movie/char/high/movie_1501.usm.aaf"
         },
         {
            "size" : 1048576,
            "url" : "movie/char/high/movie_1501.usm.aag"
         },
         {
            "size" : 1048576,
            "url" : "movie/char/high/movie_1501.usm.aah"
         },
         {
            "size" : 1048576,
            "url" : "movie/char/high/movie_1501.usm.aai"
         },
         {
            "size" : 1048576,
            "url" : "movie/char/high/movie_1501.usm.aaj"
         },
         {
            "size" : 1048576,
            "url" : "movie/char/high/movie_1501.usm.aak"
         },
         {
            "size" : 1048576,
            "url" : "movie/char/high/movie_1501.usm.aal"
         },
         {
            "size" : 391488,
            "url" : "movie/char/high/movie_1501.usm.aam"
         }
      ],
      "md5" : "38298dc0c175e2a6287848ac79781802",
      "path" : "movie/char/movie_1501.usm"
   }
]
