[
   {
      "file_list" : [
         {
            "size" : 1048576,
            "url" : "movie/char/high/movie_2101_2.usm.aaa"
         },
         {
            "size" : 1048576,
            "url" : "movie/char/high/movie_2101_2.usm.aab"
         },
         {
            "size" : 1048576,
            "url" : "movie/char/high/movie_2101_2.usm.aac"
         },
         {
            "size" : 1048576,
            "url" : "movie/char/high/movie_2101_2.usm.aad"
         },
         {
            "size" : 1048576,
            "url" : "movie/char/high/movie_2101_2.usm.aae"
         },
         {
            "size" : 1048576,
            "url" : "movie/char/high/movie_2101_2.usm.aaf"
         },
         {
            "size" : 1048576,
            "url" : "movie/char/high/movie_2101_2.usm.aag"
         },
         {
            "size" : 1048576,
            "url" : "movie/char/high/movie_2101_2.usm.aah"
         },
         {
            "size" : 1048576,
            "url" : "movie/char/high/movie_2101_2.usm.aai"
         },
         {
            "size" : 1048576,
            "url" : "movie/char/high/movie_2101_2.usm.aaj"
         },
         {
            "size" : 1048576,
            "url" : "movie/char/high/movie_2101_2.usm.aak"
         },
         {
            "size" : 1048576,
            "url" : "movie/char/high/movie_2101_2.usm.aal"
         },
         {
            "size" : 1048576,
            "url" : "movie/char/high/movie_2101_2.usm.aam"
         },
         {
            "size" : 1048576,
            "url" : "movie/char/high/movie_2101_2.usm.aan"
         },
         {
            "size" : 1048576,
            "url" : "movie/char/high/movie_2101_2.usm.aao"
         },
         {
            "size" : 1048576,
            "url" : "movie/char/high/movie_2101_2.usm.aap"
         },
         {
            "size" : 1048576,
            "url" : "movie/char/high/movie_2101_2.usm.aaq"
         },
         {
            "size" : 1048576,
            "url" : "movie/char/high/movie_2101_2.usm.aar"
         },
         {
            "size" : 1048576,
            "url" : "movie/char/high/movie_2101_2.usm.aas"
         },
         {
            "size" : 896736,
            "url" : "movie/char/high/movie_2101_2.usm.aat"
         }
      ],
      "md5" : "5b00cbd1ec2f23333b97ada536b72281",
      "path" : "movie/char/movie_2101_2.usm"
   },
   {
      "file_list" : [
         {
            "size" : 165920,
            "url" : "movie/char/high/movie_2101_1.usm"
         }
      ],
      "md5" : "d1bff84677b0d7c4fe635776a2d3bd15",
      "path" : "movie/char/movie_2101_1.usm"
   },
   {
      "file_list" : [
         {
            "size" : 1048576,
            "url" : "movie/char/high/movie_2101.usm.aaa"
         },
         {
            "size" : 1048576,
            "url" : "movie/char/high/movie_2101.usm.aab"
         },
         {
            "size" : 1048576,
            "url" : "movie/char/high/movie_2101.usm.aac"
         },
         {
            "size" : 1048576,
            "url" : "movie/char/high/movie_2101.usm.aad"
         },
         {
            "size" : 1048576,
            "url" : "movie/char/high/movie_2101.usm.aae"
         },
         {
            "size" : 171328,
            "url" : "movie/char/high/movie_2101.usm.aaf"
         }
      ],
      "md5" : "9437315790134a5f9b2cc6db52404287",
      "path" : "movie/char/movie_2101.usm"
   },
   {
      "file_list" : [
         {
            "size" : 1048576,
            "url" : "movie/char/high/movie_2101_3.usm.aaa"
         },
         {
            "size" : 46560,
            "url" : "movie/char/high/movie_2101_3.usm.aab"
         }
      ],
      "md5" : "254e6d5d58b56187b366f5dc8ba23ffc",
      "path" : "movie/char/movie_2101_3.usm"
   }
]
