[
   {
      "file_list" : [
         {
            "size" : 1048512,
            "url" : "movie/char/low/movie_3047_1.usm"
         }
      ],
      "md5" : "7a36a77d8da1e7e23691fef7303afafd",
      "path" : "movie/char/movie_3047_1.usm"
   },
   {
      "file_list" : [
         {
            "size" : 1048576,
            "url" : "movie/char/low/movie_3047.usm.aaa"
         },
         {
            "size" : 1048576,
            "url" : "movie/char/low/movie_3047.usm.aab"
         },
         {
            "size" : 1010464,
            "url" : "movie/char/low/movie_3047.usm.aac"
         }
      ],
      "md5" : "cbb8ac3d73bb20f051d7e9c2e817bddc",
      "path" : "movie/char/movie_3047.usm"
   }
]
