[
   {
      "file_list" : [
         {
            "size" : 1048576,
            "url" : "movie/char/low/movie_1402_1.usm.aaa"
         },
         {
            "size" : 80448,
            "url" : "movie/char/low/movie_1402_1.usm.aab"
         }
      ],
      "md5" : "78173e45dfd9b8994a270425119f159c",
      "path" : "movie/char/movie_1402_1.usm"
   },
   {
      "file_list" : [
         {
            "size" : 1048576,
            "url" : "movie/char/low/movie_1402.usm.aaa"
         },
         {
            "size" : 1048576,
            "url" : "movie/char/low/movie_1402.usm.aab"
         },
         {
            "size" : 1048576,
            "url" : "movie/char/low/movie_1402.usm.aac"
         },
         {
            "size" : 1048576,
            "url" : "movie/char/low/movie_1402.usm.aad"
         },
         {
            "size" : 108288,
            "url" : "movie/char/low/movie_1402.usm.aae"
         }
      ],
      "md5" : "9dd420a43d4180fe7869637808fe141d",
      "path" : "movie/char/movie_1402.usm"
   }
]
