[
   {
      "file_list" : [
         {
            "size" : 707200,
            "url" : "movie/char/high/movie_3002_1.usm"
         }
      ],
      "md5" : "8f551085965532c1b252ca35963c188d",
      "path" : "movie/char/movie_3002_1.usm"
   },
   {
      "file_list" : [
         {
            "size" : 1048576,
            "url" : "movie/char/high/movie_3002.usm.aaa"
         },
         {
            "size" : 1048576,
            "url" : "movie/char/high/movie_3002.usm.aab"
         },
         {
            "size" : 498592,
            "url" : "movie/char/high/movie_3002.usm.aac"
         }
      ],
      "md5" : "9e3827483831e6d80de8ce3b027d008c",
      "path" : "movie/char/movie_3002.usm"
   }
]
