[
   {
      "file_list" : [
         {
            "size" : 1048576,
            "url" : "movie/char/high/movie_3502_1.usm.aaa"
         },
         {
            "size" : 159744,
            "url" : "movie/char/high/movie_3502_1.usm.aab"
         }
      ],
      "md5" : "0f1f6ec48eca04a8f28cc510ab1947f9",
      "path" : "movie/char/movie_3502_1.usm"
   },
   {
      "file_list" : [
         {
            "size" : 1048576,
            "url" : "movie/char/high/movie_3502.usm.aaa"
         },
         {
            "size" : 1048576,
            "url" : "movie/char/high/movie_3502.usm.aab"
         },
         {
            "size" : 1048576,
            "url" : "movie/char/high/movie_3502.usm.aac"
         },
         {
            "size" : 1048576,
            "url" : "movie/char/high/movie_3502.usm.aad"
         },
         {
            "size" : 1048576,
            "url" : "movie/char/high/movie_3502.usm.aae"
         },
         {
            "size" : 1048576,
            "url" : "movie/char/high/movie_3502.usm.aaf"
         },
         {
            "size" : 1048576,
            "url" : "movie/char/high/movie_3502.usm.aag"
         },
         {
            "size" : 1048576,
            "url" : "movie/char/high/movie_3502.usm.aah"
         },
         {
            "size" : 1048576,
            "url" : "movie/char/high/movie_3502.usm.aai"
         },
         {
            "size" : 194304,
            "url" : "movie/char/high/movie_3502.usm.aaj"
         }
      ],
      "md5" : "fd44e6e11063b6162b43de6cee35ee3b",
      "path" : "movie/char/movie_3502.usm"
   }
]
