[
   {
      "file_list" : [
         {
            "size" : 1048576,
            "url" : "movie/char/low/movie_1106.usm.aaa"
         },
         {
            "size" : 1048576,
            "url" : "movie/char/low/movie_1106.usm.aab"
         },
         {
            "size" : 1048576,
            "url" : "movie/char/low/movie_1106.usm.aac"
         },
         {
            "size" : 794240,
            "url" : "movie/char/low/movie_1106.usm.aad"
         }
      ],
      "md5" : "8c91abb828b4c1a74e1eb148e344d9c5",
      "path" : "movie/char/movie_1106.usm"
   },
   {
      "file_list" : [
         {
            "size" : 1048576,
            "url" : "movie/char/low/movie_1106_1.usm.aaa"
         },
         {
            "size" : 80480,
            "url" : "movie/char/low/movie_1106_1.usm.aab"
         }
      ],
      "md5" : "d09bf3b4f74d3d554a091c04e55143fb",
      "path" : "movie/char/movie_1106_1.usm"
   }
]
