[
   {
      "file_list" : [
         {
            "size" : 1048576,
            "url" : "movie/char/high/movie_3046.usm.aaa"
         },
         {
            "size" : 1048576,
            "url" : "movie/char/high/movie_3046.usm.aab"
         },
         {
            "size" : 1048576,
            "url" : "movie/char/high/movie_3046.usm.aac"
         },
         {
            "size" : 1048576,
            "url" : "movie/char/high/movie_3046.usm.aad"
         },
         {
            "size" : 237696,
            "url" : "movie/char/high/movie_3046.usm.aae"
         }
      ],
      "md5" : "72845db986258b4ac8e2639dbbf98be2",
      "path" : "movie/char/movie_3046.usm"
   },
   {
      "file_list" : [
         {
            "size" : 1048576,
            "url" : "movie/char/high/movie_3046_1.usm.aaa"
         },
         {
            "size" : 45248,
            "url" : "movie/char/high/movie_3046_1.usm.aab"
         }
      ],
      "md5" : "638e1a8817c0dd0a9cd021653bc66b43",
      "path" : "movie/char/movie_3046_1.usm"
   }
]
