[
   {
      "file_list" : [
         {
            "size" : 1048576,
            "url" : "movie/char/high/movie_2202.usm.aaa"
         },
         {
            "size" : 1048576,
            "url" : "movie/char/high/movie_2202.usm.aab"
         },
         {
            "size" : 1048576,
            "url" : "movie/char/high/movie_2202.usm.aac"
         },
         {
            "size" : 1048576,
            "url" : "movie/char/high/movie_2202.usm.aad"
         },
         {
            "size" : 1048576,
            "url" : "movie/char/high/movie_2202.usm.aae"
         },
         {
            "size" : 1048576,
            "url" : "movie/char/high/movie_2202.usm.aaf"
         },
         {
            "size" : 1048576,
            "url" : "movie/char/high/movie_2202.usm.aag"
         },
         {
            "size" : 1048576,
            "url" : "movie/char/high/movie_2202.usm.aah"
         },
         {
            "size" : 1048576,
            "url" : "movie/char/high/movie_2202.usm.aai"
         },
         {
            "size" : 1048576,
            "url" : "movie/char/high/movie_2202.usm.aaj"
         },
         {
            "size" : 1048576,
            "url" : "movie/char/high/movie_2202.usm.aak"
         },
         {
            "size" : 1048576,
            "url" : "movie/char/high/movie_2202.usm.aal"
         },
         {
            "size" : 1048576,
            "url" : "movie/char/high/movie_2202.usm.aam"
         },
         {
            "size" : 1048576,
            "url" : "movie/char/high/movie_2202.usm.aan"
         },
         {
            "size" : 1048576,
            "url" : "movie/char/high/movie_2202.usm.aao"
         },
         {
            "size" : 1048576,
            "url" : "movie/char/high/movie_2202.usm.aap"
         },
         {
            "size" : 1048576,
            "url" : "movie/char/high/movie_2202.usm.aaq"
         },
         {
            "size" : 1048576,
            "url" : "movie/char/high/movie_2202.usm.aar"
         },
         {
            "size" : 1048576,
            "url" : "movie/char/high/movie_2202.usm.aas"
         },
         {
            "size" : 1048576,
            "url" : "movie/char/high/movie_2202.usm.aat"
         },
         {
            "size" : 1048576,
            "url" : "movie/char/high/movie_2202.usm.aau"
         },
         {
            "size" : 1048576,
            "url" : "movie/char/high/movie_2202.usm.aav"
         },
         {
            "size" : 1048576,
            "url" : "movie/char/high/movie_2202.usm.aaw"
         },
         {
            "size" : 1048576,
            "url" : "movie/char/high/movie_2202.usm.aax"
         },
         {
            "size" : 1048576,
            "url" : "movie/char/high/movie_2202.usm.aay"
         },
         {
            "size" : 1048576,
            "url" : "movie/char/high/movie_2202.usm.aaz"
         },
         {
            "size" : 1048576,
            "url" : "movie/char/high/movie_2202.usm.aba"
         },
         {
            "size" : 1048576,
            "url" : "movie/char/high/movie_2202.usm.abb"
         },
         {
            "size" : 1048576,
            "url" : "movie/char/high/movie_2202.usm.abc"
         },
         {
            "size" : 1048576,
            "url" : "movie/char/high/movie_2202.usm.abd"
         },
         {
            "size" : 1048576,
            "url" : "movie/char/high/movie_2202.usm.abe"
         },
         {
            "size" : 1048576,
            "url" : "movie/char/high/movie_2202.usm.abf"
         },
         {
            "size" : 1048576,
            "url" : "movie/char/high/movie_2202.usm.abg"
         },
         {
            "size" : 1048576,
            "url" : "movie/char/high/movie_2202.usm.abh"
         },
         {
            "size" : 1048576,
            "url" : "movie/char/high/movie_2202.usm.abi"
         },
         {
            "size" : 1048576,
            "url" : "movie/char/high/movie_2202.usm.abj"
         },
         {
            "size" : 1048576,
            "url" : "movie/char/high/movie_2202.usm.abk"
         },
         {
            "size" : 1048576,
            "url" : "movie/char/high/movie_2202.usm.abl"
         },
         {
            "size" : 1048576,
            "url" : "movie/char/high/movie_2202.usm.abm"
         },
         {
            "size" : 537056,
            "url" : "movie/char/high/movie_2202.usm.abn"
         }
      ],
      "md5" : "2310c16ca40741eca528dc7b12332db6",
      "path" : "movie/char/movie_2202.usm"
   },
   {
      "file_list" : [
         {
            "size" : 309536,
            "url" : "movie/char/high/movie_2202_1.usm"
         }
      ],
      "md5" : "17d659cc0cdd7a00db77d7ef8c0c9c6f",
      "path" : "movie/char/movie_2202_1.usm"
   }
]
