[
   {
      "file_list" : [
         {
            "size" : 1048576,
            "url" : "movie/char/high/movie_2501_1.usm.aaa"
         },
         {
            "size" : 1048576,
            "url" : "movie/char/high/movie_2501_1.usm.aab"
         },
         {
            "size" : 353056,
            "url" : "movie/char/high/movie_2501_1.usm.aac"
         }
      ],
      "md5" : "82e72f56b82ffbc4dc959469b091f560",
      "path" : "movie/char/movie_2501_1.usm"
   },
   {
      "file_list" : [
         {
            "size" : 1048576,
            "url" : "movie/char/high/movie_2501.usm.aaa"
         },
         {
            "size" : 1048576,
            "url" : "movie/char/high/movie_2501.usm.aab"
         },
         {
            "size" : 1048576,
            "url" : "movie/char/high/movie_2501.usm.aac"
         },
         {
            "size" : 1048576,
            "url" : "movie/char/high/movie_2501.usm.aad"
         },
         {
            "size" : 1048576,
            "url" : "movie/char/high/movie_2501.usm.aae"
         },
         {
            "size" : 1048576,
            "url" : "movie/char/high/movie_2501.usm.aaf"
         },
         {
            "size" : 1048576,
            "url" : "movie/char/high/movie_2501.usm.aag"
         },
         {
            "size" : 1048576,
            "url" : "movie/char/high/movie_2501.usm.aah"
         },
         {
            "size" : 1048576,
            "url" : "movie/char/high/movie_2501.usm.aai"
         },
         {
            "size" : 1048576,
            "url" : "movie/char/high/movie_2501.usm.aaj"
         },
         {
            "size" : 1048576,
            "url" : "movie/char/high/movie_2501.usm.aak"
         },
         {
            "size" : 1048576,
            "url" : "movie/char/high/movie_2501.usm.aal"
         },
         {
            "size" : 1048576,
            "url" : "movie/char/high/movie_2501.usm.aam"
         },
         {
            "size" : 1048576,
            "url" : "movie/char/high/movie_2501.usm.aan"
         },
         {
            "size" : 1048576,
            "url" : "movie/char/high/movie_2501.usm.aao"
         },
         {
            "size" : 1048576,
            "url" : "movie/char/high/movie_2501.usm.aap"
         },
         {
            "size" : 1048576,
            "url" : "movie/char/high/movie_2501.usm.aaq"
         },
         {
            "size" : 1048576,
            "url" : "movie/char/high/movie_2501.usm.aar"
         },
         {
            "size" : 1048576,
            "url" : "movie/char/high/movie_2501.usm.aas"
         },
         {
            "size" : 1048576,
            "url" : "movie/char/high/movie_2501.usm.aat"
         },
         {
            "size" : 1048576,
            "url" : "movie/char/high/movie_2501.usm.aau"
         },
         {
            "size" : 1048576,
            "url" : "movie/char/high/movie_2501.usm.aav"
         },
         {
            "size" : 1048576,
            "url" : "movie/char/high/movie_2501.usm.aaw"
         },
         {
            "size" : 1048576,
            "url" : "movie/char/high/movie_2501.usm.aax"
         },
         {
            "size" : 290816,
            "url" : "movie/char/high/movie_2501.usm.aay"
         }
      ],
      "md5" : "f3d9bf9395cad972c8320906bd7ef543",
      "path" : "movie/char/movie_2501.usm"
   }
]
