[
   {
      "file_list" : [
         {
            "size" : 1048576,
            "url" : "movie/char/high/movie_3045.usm.aaa"
         },
         {
            "size" : 1048576,
            "url" : "movie/char/high/movie_3045.usm.aab"
         },
         {
            "size" : 1048576,
            "url" : "movie/char/high/movie_3045.usm.aac"
         },
         {
            "size" : 1048576,
            "url" : "movie/char/high/movie_3045.usm.aad"
         },
         {
            "size" : 448992,
            "url" : "movie/char/high/movie_3045.usm.aae"
         }
      ],
      "md5" : "6f757d76835ff5f646dabd6be17dd8a7",
      "path" : "movie/char/movie_3045.usm"
   },
   {
      "file_list" : [
         {
            "size" : 915840,
            "url" : "movie/char/high/movie_3045_1.usm"
         }
      ],
      "md5" : "2ac090e730a6886a5c50f5a23198b2c6",
      "path" : "movie/char/movie_3045_1.usm"
   }
]
