[
   {
      "file_list" : [
         {
            "size" : 1048576,
            "url" : "movie/char/high/movie_1216.usm.aaa"
         },
         {
            "size" : 1048576,
            "url" : "movie/char/high/movie_1216.usm.aab"
         },
         {
            "size" : 1048576,
            "url" : "movie/char/high/movie_1216.usm.aac"
         },
         {
            "size" : 1048576,
            "url" : "movie/char/high/movie_1216.usm.aad"
         },
         {
            "size" : 1048576,
            "url" : "movie/char/high/movie_1216.usm.aae"
         },
         {
            "size" : 158624,
            "url" : "movie/char/high/movie_1216.usm.aaf"
         }
      ],
      "md5" : "7d85b4b333b31d11e56a0712b90f5dc2",
      "path" : "movie/char/movie_1216.usm"
   },
   {
      "file_list" : [
         {
            "size" : 1048576,
            "url" : "movie/char/high/movie_1216_1.usm.aaa"
         },
         {
            "size" : 148000,
            "url" : "movie/char/high/movie_1216_1.usm.aab"
         }
      ],
      "md5" : "11992832fb54f7b830fcea253544c65e",
      "path" : "movie/char/movie_1216_1.usm"
   }
]
