[
   {
      "file_list" : [
         {
            "size" : 1043456,
            "url" : "movie/char/low/movie_3038_1.usm"
         }
      ],
      "md5" : "12149d5d17c3e21a21fae88312739700",
      "path" : "movie/char/movie_3038_1.usm"
   },
   {
      "file_list" : [
         {
            "size" : 1048576,
            "url" : "movie/char/low/movie_3038.usm.aaa"
         },
         {
            "size" : 1048576,
            "url" : "movie/char/low/movie_3038.usm.aab"
         },
         {
            "size" : 672160,
            "url" : "movie/char/low/movie_3038.usm.aac"
         }
      ],
      "md5" : "fab33095b3e01b48256d5aa873bb1bc2",
      "path" : "movie/char/movie_3038.usm"
   }
]
