[
   {
      "file_list" : [
         {
            "size" : 1048576,
            "url" : "movie/char/low/movie_1203_1.usm.aaa"
         },
         {
            "size" : 1056,
            "url" : "movie/char/low/movie_1203_1.usm.aab"
         }
      ],
      "md5" : "3cb45205934a3790c34be19633484a1c",
      "path" : "movie/char/movie_1203_1.usm"
   },
   {
      "file_list" : [
         {
            "size" : 1048576,
            "url" : "movie/char/low/movie_1203.usm.aaa"
         },
         {
            "size" : 1048576,
            "url" : "movie/char/low/movie_1203.usm.aab"
         },
         {
            "size" : 1048576,
            "url" : "movie/char/low/movie_1203.usm.aac"
         },
         {
            "size" : 1048576,
            "url" : "movie/char/low/movie_1203.usm.aad"
         },
         {
            "size" : 386080,
            "url" : "movie/char/low/movie_1203.usm.aae"
         }
      ],
      "md5" : "bde0e2942c6b1ba3353880b743a4d062",
      "path" : "movie/char/movie_1203.usm"
   }
]
