[
   {
      "file_list" : [
         {
            "size" : 1048576,
            "url" : "movie/char/low/movie_1006.usm.aaa"
         },
         {
            "size" : 1048576,
            "url" : "movie/char/low/movie_1006.usm.aab"
         },
         {
            "size" : 1048576,
            "url" : "movie/char/low/movie_1006.usm.aac"
         },
         {
            "size" : 1048576,
            "url" : "movie/char/low/movie_1006.usm.aad"
         },
         {
            "size" : 1048576,
            "url" : "movie/char/low/movie_1006.usm.aae"
         },
         {
            "size" : 441440,
            "url" : "movie/char/low/movie_1006.usm.aaf"
         }
      ],
      "md5" : "f7875a45e4e177d7971cb5215e6ea917",
      "path" : "movie/char/movie_1006.usm"
   },
   {
      "file_list" : [
         {
            "size" : 1048576,
            "url" : "movie/char/low/movie_1006_1.usm.aaa"
         },
         {
            "size" : 16736,
            "url" : "movie/char/low/movie_1006_1.usm.aab"
         }
      ],
      "md5" : "a2b4b04213f94075f588194569733d7e",
      "path" : "movie/char/movie_1006_1.usm"
   }
]
