[
  {
    "file_list": [
      {
        "size": 1048576,
        "url": "movie/char/low/movie_1144_1.usm.aaa"
      },
      {
        "size": 70016,
        "url": "movie/char/low/movie_1144_1.usm.aab"
      }
    ],
    "md5": "d28ec071ac6e3c19537916847a23831e",
    "path": "movie/char/movie_1144_1.usm"
  },
  {
    "file_list": [
      {
        "size": 1048576,
        "url": "movie/char/low/movie_1144.usm.aaa"
      },
      {
        "size": 1048576,
        "url": "movie/char/low/movie_1144.usm.aab"
      },
      {
        "size": 1048576,
        "url": "movie/char/low/movie_1144.usm.aac"
      },
      {
        "size": 1048576,
        "url": "movie/char/low/movie_1144.usm.aad"
      },
      {
        "size": 34368,
        "url": "movie/char/low/movie_1144.usm.aae"
      }
    ],
    "md5": "c4db18eccd53d6043a53a533e67d0527",
    "path": "movie/char/movie_1144.usm"
  }
]
