[
   {
      "file_list" : [
         {
            "size" : 1048576,
            "url" : "movie/char/high/movie_3504_1.usm.aaa"
         },
         {
            "size" : 362592,
            "url" : "movie/char/high/movie_3504_1.usm.aab"
         }
      ],
      "md5" : "7629c94f303dda685ed032af49792178",
      "path" : "movie/char/movie_3504_1.usm"
   },
   {
      "file_list" : [
         {
            "size" : 1048576,
            "url" : "movie/char/high/movie_3504.usm.aaa"
         },
         {
            "size" : 1048576,
            "url" : "movie/char/high/movie_3504.usm.aab"
         },
         {
            "size" : 1048576,
            "url" : "movie/char/high/movie_3504.usm.aac"
         },
         {
            "size" : 1048576,
            "url" : "movie/char/high/movie_3504.usm.aad"
         },
         {
            "size" : 1048576,
            "url" : "movie/char/high/movie_3504.usm.aae"
         },
         {
            "size" : 192896,
            "url" : "movie/char/high/movie_3504.usm.aaf"
         }
      ],
      "md5" : "65110638489dc89f7fc205f8e31e6e6f",
      "path" : "movie/char/movie_3504.usm"
   }
]
