[
   {
      "file_list" : [
         {
            "size" : 1048576,
            "url" : "movie/char/high/movie_3005.usm.aaa"
         },
         {
            "size" : 1048576,
            "url" : "movie/char/high/movie_3005.usm.aab"
         },
         {
            "size" : 519360,
            "url" : "movie/char/high/movie_3005.usm.aac"
         }
      ],
      "md5" : "81368cf31a3c7842fbc387b1d55e9135",
      "path" : "movie/char/movie_3005.usm"
   },
   {
      "file_list" : [
         {
            "size" : 726944,
            "url" : "movie/char/high/movie_3005_1.usm"
         }
      ],
      "md5" : "d6c37e8165f3e3815aa9d71b3ce42dd1",
      "path" : "movie/char/movie_3005_1.usm"
   }
]
