[
   {
      "file_list" : [
         {
            "size" : 1048576,
            "url" : "movie/char/low/movie_2104.usm.aaa"
         },
         {
            "size" : 1048576,
            "url" : "movie/char/low/movie_2104.usm.aab"
         },
         {
            "size" : 1048576,
            "url" : "movie/char/low/movie_2104.usm.aac"
         },
         {
            "size" : 1048576,
            "url" : "movie/char/low/movie_2104.usm.aad"
         },
         {
            "size" : 1048576,
            "url" : "movie/char/low/movie_2104.usm.aae"
         },
         {
            "size" : 1048576,
            "url" : "movie/char/low/movie_2104.usm.aaf"
         },
         {
            "size" : 1048576,
            "url" : "movie/char/low/movie_2104.usm.aag"
         },
         {
            "size" : 1037568,
            "url" : "movie/char/low/movie_2104.usm.aah"
         }
      ],
      "md5" : "870f0cfbc02514dd39fba4b5242122fd",
      "path" : "movie/char/movie_2104.usm"
   },
   {
      "file_list" : [
         {
            "size" : 1028704,
            "url" : "movie/char/low/movie_2104_1.usm"
         }
      ],
      "md5" : "9f9c9a1a1357ab3257707985e571c419",
      "path" : "movie/char/movie_2104_1.usm"
   }
]
