[
   {
      "file_list" : [
         {
            "size" : 1048576,
            "url" : "movie/char/low/movie_1143_1.usm.aaa"
         },
         {
            "size" : 1048576,
            "url" : "movie/char/low/movie_1143_1.usm.aab"
         },
         {
            "size" : 1048576,
            "url" : "movie/char/low/movie_1143_1.usm.aac"
         },
         {
            "size" : 852864,
            "url" : "movie/char/low/movie_1143_1.usm.aad"
         }
      ],
      "md5" : "9a75a20b1718bc03ecf6e0a8d0fd9a87",
      "path" : "movie/char/movie_1143_1.usm"
   },
   {
      "file_list" : [
         {
            "size" : 1048576,
            "url" : "movie/char/low/movie_1143.usm.aaa"
         },
         {
            "size" : 1048576,
            "url" : "movie/char/low/movie_1143.usm.aab"
         },
         {
            "size" : 1048576,
            "url" : "movie/char/low/movie_1143.usm.aac"
         },
         {
            "size" : 1048576,
            "url" : "movie/char/low/movie_1143.usm.aad"
         },
         {
            "size" : 1048576,
            "url" : "movie/char/low/movie_1143.usm.aae"
         },
         {
            "size" : 1048576,
            "url" : "movie/char/low/movie_1143.usm.aaf"
         },
         {
            "size" : 1048576,
            "url" : "movie/char/low/movie_1143.usm.aag"
         },
         {
            "size" : 1048576,
            "url" : "movie/char/low/movie_1143.usm.aah"
         },
         {
            "size" : 1048576,
            "url" : "movie/char/low/movie_1143.usm.aai"
         },
         {
            "size" : 1048576,
            "url" : "movie/char/low/movie_1143.usm.aaj"
         },
         {
            "size" : 1048576,
            "url" : "movie/char/low/movie_1143.usm.aak"
         },
         {
            "size" : 1048576,
            "url" : "movie/char/low/movie_1143.usm.aal"
         },
         {
            "size" : 1048576,
            "url" : "movie/char/low/movie_1143.usm.aam"
         },
         {
            "size" : 1048576,
            "url" : "movie/char/low/movie_1143.usm.aan"
         },
         {
            "size" : 950912,
            "url" : "movie/char/low/movie_1143.usm.aao"
         }
      ],
      "md5" : "14b972f83130f0ac68c1f679179e222f",
      "path" : "movie/char/movie_1143.usm"
   }
]
