[
   {
      "file_list" : [
         {
            "size" : 1048576,
            "url" : "movie/char/high/movie_4033.usm.aaa"
         },
         {
            "size" : 1048576,
            "url" : "movie/char/high/movie_4033.usm.aab"
         },
         {
            "size" : 815008,
            "url" : "movie/char/high/movie_4033.usm.aac"
         }
      ],
      "md5" : "4eccb68bd16b221046e6a3446f0918a1",
      "path" : "movie/char/movie_4033.usm"
   },
   {
      "file_list" : [
         {
            "size" : 372608,
            "url" : "movie/char/high/movie_4033_1.usm"
         }
      ],
      "md5" : "8824d1fde637ab288a35d2353a34d190",
      "path" : "movie/char/movie_4033_1.usm"
   }
]
