[
   {
      "file_list" : [
         {
            "size" : 1048576,
            "url" : "movie/char/high/movie_1002.usm.aaa"
         },
         {
            "size" : 1048576,
            "url" : "movie/char/high/movie_1002.usm.aab"
         },
         {
            "size" : 1048576,
            "url" : "movie/char/high/movie_1002.usm.aac"
         },
         {
            "size" : 1048576,
            "url" : "movie/char/high/movie_1002.usm.aad"
         },
         {
            "size" : 1048576,
            "url" : "movie/char/high/movie_1002.usm.aae"
         },
         {
            "size" : 1048576,
            "url" : "movie/char/high/movie_1002.usm.aaf"
         },
         {
            "size" : 1048576,
            "url" : "movie/char/high/movie_1002.usm.aag"
         },
         {
            "size" : 78368,
            "url" : "movie/char/high/movie_1002.usm.aah"
         }
      ],
      "md5" : "5af9a585ef293546f3f93dd887d66fac",
      "path" : "movie/char/movie_1002.usm"
   },
   {
      "file_list" : [
         {
            "size" : 747520,
            "url" : "movie/char/high/movie_1002_1.usm"
         }
      ],
      "md5" : "fbae0ba072ac5fab5d51f6f5fd7cbcd9",
      "path" : "movie/char/movie_1002_1.usm"
   }
]
