[
   {
      "file_list" : [
         {
            "size" : 1048576,
            "url" : "movie/char/low/movie_4029.usm.aaa"
         },
         {
            "size" : 1048576,
            "url" : "movie/char/low/movie_4029.usm.aab"
         },
         {
            "size" : 1048576,
            "url" : "movie/char/low/movie_4029.usm.aac"
         },
         {
            "size" : 1048576,
            "url" : "movie/char/low/movie_4029.usm.aad"
         },
         {
            "size" : 1048576,
            "url" : "movie/char/low/movie_4029.usm.aae"
         },
         {
            "size" : 1048576,
            "url" : "movie/char/low/movie_4029.usm.aaf"
         },
         {
            "size" : 1048576,
            "url" : "movie/char/low/movie_4029.usm.aag"
         },
         {
            "size" : 112032,
            "url" : "movie/char/low/movie_4029.usm.aah"
         }
      ],
      "md5" : "57041520655e1e5e32b9255ccc440a46",
      "path" : "movie/char/movie_4029.usm"
   },
   {
      "file_list" : [
         {
            "size" : 1048576,
            "url" : "movie/char/low/movie_4029_1.usm.aaa"
         },
         {
            "size" : 7712,
            "url" : "movie/char/low/movie_4029_1.usm.aab"
         }
      ],
      "md5" : "239cee79c9a0132c30979acf274aa8da",
      "path" : "movie/char/movie_4029_1.usm"
   }
]
