[
   {
      "file_list" : [
         {
            "size" : 1048576,
            "url" : "movie/char/low/movie_1139_1.usm.aaa"
         },
         {
            "size" : 76864,
            "url" : "movie/char/low/movie_1139_1.usm.aab"
         }
      ],
      "md5" : "eecaa9d0db039dab0a187abf3918f2bc",
      "path" : "movie/char/movie_1139_1.usm"
   },
   {
      "file_list" : [
         {
            "size" : 1048576,
            "url" : "movie/char/low/movie_1139.usm.aaa"
         },
         {
            "size" : 1048576,
            "url" : "movie/char/low/movie_1139.usm.aab"
         },
         {
            "size" : 1048576,
            "url" : "movie/char/low/movie_1139.usm.aac"
         },
         {
            "size" : 749088,
            "url" : "movie/char/low/movie_1139.usm.aad"
         }
      ],
      "md5" : "6d05f8fd7053c9cc5b42dfb8f9a2fcb1",
      "path" : "movie/char/movie_1139.usm"
   }
]
