[
   {
      "file_list" : [
         {
            "size" : 923136,
            "url" : "movie/char/high/movie_1007_1.usm"
         }
      ],
      "md5" : "7bebf4171e36e9bacae673a76eb6aaeb",
      "path" : "movie/char/movie_1007_1.usm"
   },
   {
      "file_list" : [
         {
            "size" : 1048576,
            "url" : "movie/char/high/movie_1007.usm.aaa"
         },
         {
            "size" : 1048576,
            "url" : "movie/char/high/movie_1007.usm.aab"
         },
         {
            "size" : 1048576,
            "url" : "movie/char/high/movie_1007.usm.aac"
         },
         {
            "size" : 1048576,
            "url" : "movie/char/high/movie_1007.usm.aad"
         },
         {
            "size" : 1048576,
            "url" : "movie/char/high/movie_1007.usm.aae"
         },
         {
            "size" : 1048576,
            "url" : "movie/char/high/movie_1007.usm.aaf"
         },
         {
            "size" : 1048576,
            "url" : "movie/char/high/movie_1007.usm.aag"
         },
         {
            "size" : 683456,
            "url" : "movie/char/high/movie_1007.usm.aah"
         }
      ],
      "md5" : "ad76d8edc7fe703ed54c049c96743855",
      "path" : "movie/char/movie_1007.usm"
   }
]
