[
   {
      "file_list" : [
         {
            "size" : 1048576,
            "url" : "movie/char/high/movie_3047.usm.aaa"
         },
         {
            "size" : 1048576,
            "url" : "movie/char/high/movie_3047.usm.aab"
         },
         {
            "size" : 1048576,
            "url" : "movie/char/high/movie_3047.usm.aac"
         },
         {
            "size" : 706272,
            "url" : "movie/char/high/movie_3047.usm.aad"
         }
      ],
      "md5" : "e55b395c404ddd3e35c9fd1d772562b1",
      "path" : "movie/char/movie_3047.usm"
   },
   {
      "file_list" : [
         {
            "size" : 966240,
            "url" : "movie/char/high/movie_3047_1.usm"
         }
      ],
      "md5" : "44596aba2937329b9890ae93027edf09",
      "path" : "movie/char/movie_3047_1.usm"
   }
]
