[
   {
      "file_list" : [
         {
            "size" : 1048576,
            "url" : "movie/char/high/movie_4052.usm.aaa"
         },
         {
            "size" : 1048576,
            "url" : "movie/char/high/movie_4052.usm.aab"
         },
         {
            "size" : 1048576,
            "url" : "movie/char/high/movie_4052.usm.aac"
         },
         {
            "size" : 1048576,
            "url" : "movie/char/high/movie_4052.usm.aad"
         },
         {
            "size" : 1048576,
            "url" : "movie/char/high/movie_4052.usm.aae"
         },
         {
            "size" : 1048576,
            "url" : "movie/char/high/movie_4052.usm.aaf"
         },
         {
            "size" : 1048576,
            "url" : "movie/char/high/movie_4052.usm.aag"
         },
         {
            "size" : 1048576,
            "url" : "movie/char/high/movie_4052.usm.aah"
         },
         {
            "size" : 1048576,
            "url" : "movie/char/high/movie_4052.usm.aai"
         },
         {
            "size" : 1048576,
            "url" : "movie/char/high/movie_4052.usm.aaj"
         },
         {
            "size" : 1048576,
            "url" : "movie/char/high/movie_4052.usm.aak"
         },
         {
            "size" : 10528,
            "url" : "movie/char/high/movie_4052.usm.aal"
         }
      ],
      "md5" : "a518110899a76a6d5d060df2c549b564",
      "path" : "movie/char/movie_4052.usm"
   },
   {
      "file_list" : [
         {
            "size" : 1048576,
            "url" : "movie/char/high/movie_4052_1.usm.aaa"
         },
         {
            "size" : 76864,
            "url" : "movie/char/high/movie_4052_1.usm.aab"
         }
      ],
      "md5" : "e072eead2f2e38e0dbeea0947faec438",
      "path" : "movie/char/movie_4052_1.usm"
   }
]
